Survival Analysis with episodes and tidymodels • episodes
…
tv_model_result <- workflow() |>
  add_formula(
    Surv(time = start_time, time2 = end_time, event = discontinued) ~
      age + gender + race + substance + medication + mental_health_disorder +
      frequency_of_use + housing + died_ever + cluster(client_id)
  ) |>
  add_model(surv_spec) |>
  fit(data = episodes_tv) |>
  extract_fit_parsnip() |>
  tidy(exponentiate = TRUE, conf.int = TRUE, conf.level = 0.95)

tv_model_result
#> # A tibble: 24 × 7
#>    term                estimate std.error statistic   p.value conf.low conf.high
#>    <chr>                  <dbl>     <dbl>     <dbl>     <dbl>    <dbl>     <dbl>
#>  1 age                    1.00    8.45e-4     0.846  3.98e- 1    0.999     1.00 
#>  2 mental_health_diso…    0.678   2.41e-2   -16.1    1.90e-58    0.647     0.711
#>  3 mental_health_diso…   NA       0          NA     NA          NA        NA    
#>  4 died_everTRUE          1.21    2.84e-2     6.73   1.67e-11    1.14      1.28 
#>  5 `cluster(client_id…    1.00    7.96e-6     0.367  7.13e- 1    1.00      1.00 
#>  6 genderFemale           1.02    2.34e-2     1.00   3.17e- 1    0.978     1.07 
#>  7 genderNon-binary       1.10    6.02e-2     1.52   1.29e- 1    0.974     1.23 
#>  8 raceBlack              1.02    3.28e-2     0.734  4.63e- 1    0.961     1.09 
#>  9 raceHispanic           0.991   3.28e-2    -0.289  7.72e- 1    0.929     1.06 
#> 10 raceAsian              0.922   5.32e-2    -1.53   1.27e- 1    0.831     1.02 
#> # ℹ 14 more rows
…
death_tv_model <- workflow() |>
  add_formula(
    Surv(time = start_time, time2 = end_time, event = died_last_visit) ~
      age + gender + race + substance + medication + mental_health_disorder +
      frequency_of_use + housing + cluster(client_id)
  ) |>
  add_model(surv_spec) |>
  fit(data = episodes_tv_death) |>
  extract_fit_parsnip() |>
  tidy(exponentiate = TRUE, conf.int = TRUE, conf.level = 0.95)

death_tv_model
#> # A tibble: 23 × 7
#>    term                estimate std.error statistic   p.value conf.low conf.high
#>    <chr>                  <dbl>     <dbl>     <dbl>     <dbl>    <dbl>     <dbl>
#>  1 age                    1.00  0.00204      2.06    3.94e- 2    1.00      1.01 
#>  2 mental_health_diso…    0.505 0.0565     -12.1     1.45e-33    0.452     0.565
#>  3 mental_health_diso…   NA     0           NA      NA          NA        NA    
#>  4 `cluster(client_id…    1.00  0.0000192   -0.329   7.42e- 1    1.00      1.00 
#>  5 genderFemale           0.953 0.0564      -0.855   3.93e- 1    0.853     1.06 
#>  6 genderNon-binary       0.987 0.143       -0.0903  9.28e- 1    0.745     1.31 
#>  7 raceBlack              1.08  0.0784       1.01    3.15e- 1    0.928     1.26 
#>  8 raceHispanic           1.13  0.0781       1.58    1.14e- 1    0.971     1.32 
#>  9 raceAsian              0.943 0.130       -0.452   6.51e- 1    0.730     1.22 
#> 10 raceOther              1.25  0.124        1.80    7.25e- 2    0.980     1.59 
#> # ℹ 13 more rows
…
comprehensive_model <- workflow() |>
  add_formula(
    Surv(time = start_time, time2 = end_time, event = died_last_visit) ~
      age + gender + race + substance + medication + mental_health_disorder +
      frequency_of_use + housing + discontinued + cluster(client_id)
  ) |>
  add_model(surv_spec) |>
  fit(data = episodes_comprehensive) |>
  extract_fit_parsnip() |>
  tidy(exponentiate = TRUE, conf.int = TRUE, conf.level = 0.95)

comprehensive_model
#> # A tibble: 24 × 7
#>    term                estimate std.error statistic   p.value conf.low conf.high
#>    <chr>                  <dbl>     <dbl>     <dbl>     <dbl>    <dbl>     <dbl>
#>  1 age                    1.00  0.00204       1.70   8.92e- 2    0.999     1.01 
#>  2 mental_health_diso…    0.573 0.0570       -9.77   1.56e-22    0.513     0.641
#>  3 mental_health_diso…   NA     0            NA     NA          NA        NA    
#>  4 discontinuedTRUE       2.98  0.0582       18.8    1.71e-78    2.66      3.34 
#>  5 `cluster(client_id…    1.00  0.0000193    -1.06   2.91e- 1    1.00      1.00 
#>  6 genderFemale           0.932 0.0564       -1.26   2.09e- 1    0.834     1.04 
#>  7 genderNon-binary       0.971 0.143        -0.203  8.39e- 1    0.733     1.29 
#>  8 raceBlack              1.04  0.0785        0.534  5.93e- 1    0.894     1.22 
#>  9 raceHispanic           1.12  0.0780        1.49   1.37e- 1    0.964     1.31 
#> 10 raceAsian              0.953 0.130        -0.367  7.14e- 1    0.738     1.23 
#> # ℹ 14 more rows
…
